INDEX VERSION 1.127+/Users/blgulla/Documents/workspace/.metadata/.plugins/org.eclipse.jdt.core
1271342938.index
3861527334.index
425358948.index
1188938806.index
1431712556.index
2547940302.index
2196809617.index
3753342716.index
2649669512.index
3246483238.index
2081006521.index
713214777.index
960409867.index
195092301.index
57975724.index
706747770.index
2087539873.index
2530618097.index
3301973527.index
3688561912.index
3388682156.index
