INDEX VERSION 1.3+/Users/blgulla/Documents/workspace/.metadata/.plugins/org.eclipse.wst.jsdt.core/indexes
2381332210.index
1737975139.index
1772907363.index
1003441900.index
3096704831.index
2576411402.index
