127.0.0.1 - - [20/Feb/2015:15:16:53 -0500] "GET / HTTP/1.1" 404 951
127.0.0.1 - - [20/Feb/2015:15:18:14 -0500] "GET / HTTP/1.1" 404 951
127.0.0.1 - - [20/Feb/2015:15:18:15 -0500] "GET /JAXRS-HelloWorld/WEB-INF/classes/com/gullatec/rest/jersey/JAXRS_HelloWorld/HelloWorldREST.java HTTP/1.1" 404 949
0:0:0:0:0:0:0:1 - - [20/Feb/2015:15:18:27 -0500] "GET /JAXRS-HelloWorld/rest/helloWorldREST/JavaCodeGeeks?value=enjoy-REST HTTP/1.1" 200 49
0:0:0:0:0:0:0:1 - - [20/Feb/2015:15:18:27 -0500] "GET /favicon.ico HTTP/1.1" 404 973
0:0:0:0:0:0:0:1 - - [20/Feb/2015:15:18:37 -0500] "GET /JAXRS-HelloWorld/rest/helloWorldREST/JavaCodeGeeks?value=WHATUP HTTP/1.1" 200 45
0:0:0:0:0:0:0:1 - - [20/Feb/2015:15:27:01 -0500] "GET /JAXRS-HelloWorld/rest/helloWorldREST/JavaCodeGeeks?value=WHATUP HTTP/1.1" 200 45
127.0.0.1 - - [20/Feb/2015:15:29:59 -0500] "GET / HTTP/1.1" 404 951
0:0:0:0:0:0:0:1 - - [20/Feb/2015:15:30:00 -0500] "GET /JAXRS-HelloWorld/WEB-INF/classes/com/gullatec/rest/jersey/JAXRS_HelloWorld/HelloWorldREST.java HTTP/1.1" 404 949
0:0:0:0:0:0:0:1 - - [20/Feb/2015:15:30:02 -0500] "GET /JAXRS-HelloWorld/rest/helloWorldREST/JavaCodeGeeks?value=WHATUP HTTP/1.1" 200 23
127.0.0.1 - - [20/Feb/2015:15:36:19 -0500] "GET / HTTP/1.1" 404 951
0:0:0:0:0:0:0:1 - - [20/Feb/2015:15:36:19 -0500] "GET /JAXRS-HelloWorld/WEB-INF/classes/com/gullatec/rest/jersey/JAXRS_HelloWorld/HelloWorldREST.java HTTP/1.1" 404 949
0:0:0:0:0:0:0:1 - - [20/Feb/2015:15:36:22 -0500] "GET /JAXRS-HelloWorld/rest/helloWorldREST/JavaCodeGeeks?value=WHATUP HTTP/1.1" 200 16
